PhD book1 - fpp3 | Shengjie Xiu
…
prison <- readr::read_csv("https://OTexts.com/fpp3/extrafiles/prison_population.csv")

prison
# A tibble: 3,072 x 6
   date       state gender legal     indigenous count
   <date>     <chr> <chr>  <chr>     <chr>      <dbl>
 1 2005-03-01 ACT   Female Remanded  ATSI           0
 2 2005-03-01 ACT   Female Remanded  Non-ATSI       2
 3 2005-03-01 ACT   Female Sentenced ATSI           0
 4 2005-03-01 ACT   Female Sentenced Non-ATSI       5
 5 2005-03-01 ACT   Male   Remanded  ATSI           7
 6 2005-03-01 ACT   Male   Remanded  Non-ATSI      58
 7 2005-03-01 ACT   Male   Sentenced ATSI           5
 8 2005-03-01 ACT   Male   Sentenced Non-ATSI     101
 9 2005-03-01 NSW   Female Remanded  ATSI          51
10 2005-03-01 NSW   Female Remanded  Non-ATSI     131
# ... with 3,062 more rows

prison <- prison %>%
  mutate(quarter = yearquarter(date)) %>%
  select(-date) %>%
  as_tsibble(key = c(state, gender, legal, indigenous), index = quarter)

prison
#> # A tsibble: 3,072 x 6 [1Q]
#> # Key:       state, gender, legal, indigenous [64]
#>    state gender legal    indigenous count quarter
#>    <chr> <chr>  <chr>    <chr>      <dbl>   <qtr>
#>  1 ACT   Female Remanded ATSI           0 2005 Q1
#>  2 ACT   Female Remanded ATSI           1 2005 Q2
#>  3 ACT   Female Remanded ATSI           0 2005 Q3
#>  4 ACT   Female Remanded ATSI           0 2005 Q4
#>  5 ACT   Female Remanded ATSI           1 2006 Q1
#>  6 ACT   Female Remanded ATSI           1 2006 Q2
#>  7 ACT   Female Remanded ATSI           1 2006 Q3
#>  8 ACT   Female Remanded ATSI           0 2006 Q4
#>  9 ACT   Female Remanded ATSI           0 2007 Q1
#> 10 ACT   Female Remanded ATSI           1 2007 Q2
#> # … with 3,062 more rows
…
fit
#> # A mable: 263 x 2
#> # Key:     Country [263]
#>    Country             trend_model
#>    <fct>                   <model>
#>  1 Afghanistan              <TSLM>
#>  2 Albania                  <TSLM>
#>  3 Algeria                  <TSLM>
#>  4 American Samoa           <TSLM>
#>  5 Andorra                  <TSLM>
#>  6 Angola                   <TSLM>
#>  7 Antigua and Barbuda      <TSLM>
#>  8 Arab World               <TSLM>
#>  9 Argentina                <TSLM>
#> 10 Armenia                  <TSLM>
#> # … with 253 more rows
…
fit %>% forecast(h = "3 years")
#> # A fable: 789 x 5 [1Y]
#> # Key:     Country, .model [263]
#>    Country        .model       Year                 GDP         .mean
#>    <fct>          <chr>       <dbl>              <dist>         <dbl>
#>  1 Afghanistan    trend_model  2018 N(1.6e+10, 1.3e+19)  16205101654.
#>  2 Afghanistan    trend_model  2019 N(1.7e+10, 1.3e+19)  16511878141.
#>  3 Afghanistan    trend_model  2020 N(1.7e+10, 1.3e+19)  16818654627.
#>  4 Albania        trend_model  2018 N(1.4e+10, 3.9e+18)  13733734164.
#>  5 Albania        trend_model  2019 N(1.4e+10, 3.9e+18)  14166852711.
#>  6 Albania        trend_model  2020 N(1.5e+10, 3.9e+18)  14599971258.
#>  7 Algeria        trend_model  2018 N(1.6e+11, 9.4e+20) 157895153441.
#>  8 Algeria        trend_model  2019 N(1.6e+11, 9.4e+20) 161100952126.
#>  9 Algeria        trend_model  2020 N(1.6e+11, 9.4e+20) 164306750811.
#> 10 American Samoa trend_model  2018 N(6.8e+08, 1.7e+15)    682475000 
#> # … with 779 more rows
…
# Set training data from 1992 to 2006
train <- aus_production %>% filter_index("1992 Q1" ~ "2006 Q4")
# Fit the models
beer_fit <- train %>%
  model(
    Mean = MEAN(Beer),
    `Naïve` = NAIVE(Beer),
    `Seasonal naïve` = SNAIVE(Beer)
  )
augment(beer_fit)
#> # A tsibble: 180 x 5 [1Q]
#> # Key:       .model [3]
#>    .model Quarter  Beer .fitted .resid
#>    <chr>    <qtr> <dbl>   <dbl>  <dbl>
#>  1 Mean   1992 Q1   443    436.   6.55
#>  2 Mean   1992 Q2   410    436. -26.4 
#>  3 Mean   1992 Q3   420    436. -16.4 
#>  4 Mean   1992 Q4   532    436.  95.6 
#>  5 Mean   1993 Q1   433    436.  -3.45
#>  6 Mean   1993 Q2   421    436. -15.4 
#>  7 Mean   1993 Q3   410    436. -26.4 
#>  8 Mean   1993 Q4   512    436.  75.6 
#>  9 Mean   1994 Q1   449    436.  12.6 
#> 10 Mean   1994 Q2   381    436. -55.4 
#> # … with 170 more rows
…
fit <- google_2015 %>%
  model(NAIVE(Close))
sim <- fit %>% generate(h = 30, times = 5, bootstrap = TRUE)
sim
#> # A tsibble: 150 x 5 [1]
#> # Key:       Symbol, .model, .rep [5]
#>    Symbol .model         day .rep   .sim
#>    <chr>  <chr>        <dbl> <chr> <dbl>
#>  1 GOOG   NAIVE(Close)   505 1      756.
#>  2 GOOG   NAIVE(Close)   506 1      749.
#>  3 GOOG   NAIVE(Close)   507 1      751.
#>  4 GOOG   NAIVE(Close)   508 1      750.
#>  5 GOOG   NAIVE(Close)   509 1      754.
#>  6 GOOG   NAIVE(Close)   510 1      754.
#>  7 GOOG   NAIVE(Close)   511 1      758.
#>  8 GOOG   NAIVE(Close)   512 1      763.
#>  9 GOOG   NAIVE(Close)   513 1      759.
#> 10 GOOG   NAIVE(Close)   514 1      748.
#> # … with 140 more rows
…
fc <- fit %>% forecast(h = 30, bootstrap = TRUE)
fc
#> # A fable: 30 x 5 [1]
#> # Key:     Symbol, .model [1]
#>    Symbol .model         day        Close .mean
#>    <chr>  <chr>        <dbl>       <dist> <dbl>
#>  1 GOOG   NAIVE(Close)   505 sample[5000]  759.
#>  2 GOOG   NAIVE(Close)   506 sample[5000]  759.
#>  3 GOOG   NAIVE(Close)   507 sample[5000]  758.
#>  4 GOOG   NAIVE(Close)   508 sample[5000]  759.
#>  5 GOOG   NAIVE(Close)   509 sample[5000]  759.
#>  6 GOOG   NAIVE(Close)   510 sample[5000]  759.
#>  7 GOOG   NAIVE(Close)   511 sample[5000]  759.
#>  8 GOOG   NAIVE(Close)   512 sample[5000]  759.
#>  9 GOOG   NAIVE(Close)   513 sample[5000]  759.
#> 10 GOOG   NAIVE(Close)   514 sample[5000]  759.
#> # … with 20 more rows
…
